{
  "shell_port": 39969,
  "iopub_port": 44529,
  "stdin_port": 35823,
  "control_port": 59159,
  "hb_port": 33085,
  "ip": "127.0.0.1",
  "key": "efc41b30-a5bc663a03b1ca07879efbea",
  "transport": "tcp",
  "signature_scheme": "hmac-sha256",
  "kernel_name": ""
}